Analyzing Open Contracting data
…
##    name        age        student       
##  John:1   Min.   :20.0   Mode :logical  
##  Lucy:1   1st Qu.:22.5   FALSE:1        
##  Mike:1   Median :25.0   TRUE :2        
##           Mean   :25.0                  
##           3rd Qu.:27.5                  
##           Max.   :30.0

Reading data that is already tabular is also very simple, as shown in the example below which reads a CSV file as a data frame. The file corresponds to the iris dataset, a very popular toy dataset for data science available online.

iris <- as_tibble(read.table("iris.csv", header = TRUE, sep = ","))
iris

## # A tibble: 150 x 5
##    SepalLength SepalWidth PetalLength PetalWidth Name       
##          <dbl>      <dbl>       <dbl>      <dbl> <fct>      
##  1         5.1        3.5         1.4        0.2 Iris-setosa
##  2         4.9        3           1.4        0.2 Iris-setosa
##  3         4.7        3.2         1.3        0.2 Iris-setosa
##  4         4.6        3.1         1.5        0.2 Iris-setosa
##  5         5          3.6         1.4        0.2 Iris-setosa
##  6         5.4        3.9         1.7        0.4 Iris-setosa
##  7         4.6        3.4         1.4        0.3 Iris-setosa
##  8         5          3.4         1.5        0.2 Iris-setosa
##  9         4.4        2.9         1.4        0.2 Iris-setosa
## 10         4.9        3.1         1.5        0.1 Iris-setosa
## # ... with 140 more rows
…
  return(as_tibble(xmlToDataFrame(xmlElementsByTagName(xml_top, "item"),
                                  stringsAsFactors=FALSE)))
}

xml_data_bymonth = lapply(date_range, fetch_data)
index_tb = bind_rows(xml_data_bymonth)
index_tb

## # A tibble: 22,124 x 5
##    title             pubDate      link                  guid      category
##    <chr>             <chr>        <chr>                 <chr>     <chr>   
##  1 id_compra:686461 Tue, 06 Nov http://www.comprases llamado- tender  
##  2 id_compra:686286 Tue, 06 Nov http://www.comprases adjudica award   
##  3 id_compra:682898 Tue, 06 Nov http://www.comprases adjudica award   
##  4 id_compra:685302 Tue, 06 Nov http://www.comprases adjudica award   
##  5 id_compra:685858 Tue, 06 Nov http://www.comprases adjudica award   
##  6 id_compra:685301 Tue, 06 Nov http://www.comprases adjudica award   
##  7 id_compra:685856 Tue, 06 Nov http://www.comprases adjudica award   
##  8 id_compra:685299 Tue, 06 Nov http://www.comprases adjudica award   
##  9 id_compra:684733 Tue, 06 Nov http://www.comprases ajuste_a awardUp
## 10 id_compra:686458 Tue, 06 Nov http://www.comprases adjudica award   
## # ... with 22,114 more rows
…
The code snippet above uses several of our already familiar functions such as fromJSON, as_tibble and so on. There are three newcomers that demand explanation:

list.files returns a list of paths corresponding to files under the path that it receives as its first parameter, that match the regular expression it receives as its second parameter.

paste simply concatenates every string it receives as a parameter, placing the sep string between them.

parLapply is the parallel version of lapply, scheduling different executions of the function it receives as a parameters in different workers of our cluster. This can be done since reading different JSON files is an embarrasingly parallel task.

dncp_records_tb <- bind_rows(records)
remove(records)
dncp_records_tb

## # A tibble: 138,398 x 39
##    releases ocid  compiledRelease compiledRelease compiledRelease
##    <list>   <chr> <list>           <chr>            <list>          
##  1 <data.f ocds <list [0]>       ocds-03ad3f-134 <list [0]>      
##  2 <data.f ocds <list [0]>       ocds-03ad3f-134 <list [0]>      
##  3 <data.f ocds <data.frame [1  ocds-03ad3f-134 <data.frame [1 
##  4 <data.f ocds <list [0]>       ocds-03ad3f-134 <list [0]>      
##  5 <data.f ocds <data.frame [1  ocds-03ad3f-134 <data.frame [1 
##  6 <data.f ocds <NULL>           <NA>             <NULL>          
##  7 <data.f ocds <NULL>           <NA>             <NULL>          
##  8 <data.f ocds <data.frame [1  ocds-03ad3f-136 <data.frame [3 
##  9 <data.f ocds <data.frame [1  ocds-03ad3f-136 <data.frame [1 
## 10 <data.f ocds <list [0]>       ocds-03ad3f-136 <list [0]>      
## # ... with 138,388 more rows, and 34 more variables:
## #   compiledRelease.date <chr>, compiledRelease.language <chr>,
## #   compiledRelease.initiationType <chr>, compiledRelease.id <chr>,
## #   compiledRelease.tag <list>, compiledRelease.planning.url <chr>,
## #   compiledRelease.planning.budget.description <chr>,
## #   compiledRelease.planning.budget.amount.amount <dbl>,
## #   compiledRelease.planning.budget.amount.currency <chr>,
## #   compiledRelease.buyer.name <chr>,
## #   compiledRelease.buyer.contactPoint.email <chr>,
…
mh_releases_tb <- bind_rows(releases)
remove(releases)
mh_releases_tb

## # A tibble: 25,839 x 27
##    recordPackageURI initiationType language contracts id    tag   parties
##    <chr>            <chr>          <chr>    <list>    <chr> <lis> <list> 
##  1 https://www.con tender         es       <data.fr 1567 <chr <data.
##  2 https://www.con tender         es       <data.fr 1848 <chr <data.
##  3 https://www.con tender         es       <data.fr 1881 <chr <data.
##  4 https://www.con tender         es       <data.fr 1881 <chr <data.
##  5 https://www.con tender         es       <data.fr 1888 <chr <data.
##  6 https://www.con tender         es       <data.fr 1890 <chr <data.
##  7 https://www.con tender         es       <data.fr 1891 <chr <data.
##  8 https://www.con tender         es       <data.fr 1898 <chr <data.
##  9 https://www.con tender         es       <data.fr 1911 <chr <data.
## 10 https://www.con tender         es       <data.fr 1911 <chr <data.
## # ... with 25,829 more rows, and 20 more variables: date <chr>,
## #   awards <list>, ocid <chr>, planning.documents <list>,
## #   planning.budget.project <chr>, planning.budget.budgetBreakdown <list>,
## #   planning.budget.description <chr>,
## #   planning.budget.amount.currency <chr>,
## #   planning.budget.amount.amount <dbl>, tender.id <chr>,
## #   tender.procurementMethodDetails <chr>, tender.title <chr>,
## #   tender.procuringEntity.id <chr>, tender.procuringEntity.name <chr>,
## #   tender.tenderPeriod.startDate <chr>,
…
Spread turns every value in the column given by its key parameter and turns it into a separate column, filling in the cells with the corresponding value from the column given by its value parameter.

3.2.3 Separating

Our final tidyr function, separate, allows us to solve cases in which multiple variable values are stored in the same cell. As an example, consider the result of parsing the Uruguayan RSS feed that we downloaded in a previous section.

index_tb

## # A tibble: 88,622 x 5
##    title             pubDate      link                  guid      category
##    <chr>             <chr>        <chr>                 <chr>     <chr>   
##  1 id_compra:621230 Wed, 31 Jan http://www.comprases aclar_ll tenderU
##  2 id_compra:621230 Wed, 31 Jan http://www.comprases aclar_ll tenderU
##  3 id_compra:621230 Wed, 31 Jan http://www.comprases aclar_ll tenderU
##  4 id_compra:621230 Wed, 31 Jan http://www.comprases aclar_ll tenderU
##  5 id_compra:621230 Wed, 31 Jan http://www.comprases aclar_ll tenderU
##  6 id_compra:630528 Wed, 31 Jan http://www.comprases aclar_ll tenderU
##  7 id_compra:621230 Wed, 31 Jan http://www.comprases aclar_ll tenderU
##  8 id_compra:621230 Wed, 31 Jan http://www.comprases aclar_ll tenderU
##  9 id_compra:621230 Wed, 31 Jan http://www.comprases aclar_ll tenderU
## 10 id_compra:621230 Wed, 31 Jan http://www.comprases aclar_ll tenderU
## # ... with 88,612 more rows
…
Separate splits the value of a single column by the character given by the sep parameter; the names of the newly defined columns are given by the into parameter, which should be a collection of strings. The last two lines of the code snippet above are just a sneak peak of one of the features of the package we will cover next: dplyr.

3.3 Data analysis functions

Once we have tidied up our data with tidyr, the next steps of data analysis usually involve data manipulation in one way or the other. Selecting specific columns and rows based on a condition, adding composite columns, summarizing data, etc. can be cited among the operations that are frequently performed as a part of the analytical process. The Tidyverse includes dplyr as the go-to tool for this kind of data manipulation, we will now cover some of its basic functions.

3.3.1 Mutating

The mutate function allows the user to add a new column to a tibble based on the values of one (or more) already existing columns. Lets use the dataset of releases from Uruguay to illustrate a case where this function might come in handy:

releases_tb

## # A tibble: 22,124 x 28
##    ocid  id    date  tag   language initiationType parties buyer.name
##    <chr> <chr> <chr> <lis> <chr>    <chr>          <list>  <chr>     
##  1 ocds llam 2018 <chr es       tender         <data. Hospital 
##  2 ocds adju 2018 <chr es       tender         <data. Jefatura 
##  3 ocds adju 2018 <chr es       tender         <data. Servicio 
##  4 ocds adju 2018 <chr es       tender         <data. Direccin
##  5 ocds adju 2018 <chr es       tender         <data. Centro De
##  6 ocds adju 2018 <chr es       tender         <data. Direccin
##  7 ocds adju 2018 <chr es       tender         <data. Centro De
##  8 ocds adju 2018 <chr es       tender         <data. Direccin
##  9 ocds ajus 2018 <chr es       tender         <data. Direccin
## 10 ocds adju 2018 <chr es       tender         <data. Jefatura 
## # ... with 22,114 more rows, and 20 more variables: buyer.id <chr>,
## #   tender.id <chr>, tender.title <chr>, tender.description <chr>,
## #   tender.status <chr>, tender.items <list>,
## #   tender.procurementMethod <chr>, tender.procurementMethodDetails <chr>,
## #   tender.submissionMethod <list>, tender.hasEnquiries <lgl>,
## #   tender.documents <list>, tender.procuringEntity.name <chr>,
## #   tender.procuringEntity.id <chr>, tender.tenderPeriod.startDate <chr>,
## #   tender.tenderPeriod.endDate <chr>, awards <list>,
## #   tender.amendments <list>, tender.submissionMethodDetails <chr>,
## #   tender.enquiryPeriod.startDate <chr>,
## #   tender.enquiryPeriod.endDate <chr>

Lets suppose we need a column with the name of the month when a release was made. This value is not readily available in the dataset, but the information is contained in the date column and can be extracted with some help from mutate:

uruguay_releases_with_month = releases_tb %>% mutate(month = month.name[month(date)])
## month.name is a vector with the name of each month
uruguay_releases_with_month[c('ocid', 'month')]

## # A tibble: 22,124 x 2
##    ocid               month   
##    <chr>              <chr>   
##  1 ocds-yfs5dr-686461 November
##  2 ocds-yfs5dr-686286 November
##  3 ocds-yfs5dr-682898 November
##  4 ocds-yfs5dr-685302 November
##  5 ocds-yfs5dr-685858 November
##  6 ocds-yfs5dr-685301 November
##  7 ocds-yfs5dr-685856 November
##  8 ocds-yfs5dr-685299 November
##  9 ocds-yfs5dr-684733 November
## 10 ocds-yfs5dr-686458 November
## # ... with 22,114 more rows

Mutate receives a tibble as its first parameter; it receives a variable assignment expression as the second parameter, which is evaluated row-wise to produce the new column.

3.3.2 Selecting

In our code snippet above we selected certain columns of our tibble using array-indexing notation. dplyr provides a function to do the same thing, select:

select(uruguay_releases_with_month, ocid, month)

## # A tibble: 22,124 x 2
##    ocid               month   
##    <chr>              <chr>   
##  1 ocds-yfs5dr-686461 November
##  2 ocds-yfs5dr-686286 November
##  3 ocds-yfs5dr-682898 November
##  4 ocds-yfs5dr-685302 November
##  5 ocds-yfs5dr-685858 November
##  6 ocds-yfs5dr-685301 November
##  7 ocds-yfs5dr-685856 November
##  8 ocds-yfs5dr-685299 November
##  9 ocds-yfs5dr-684733 November
## 10 ocds-yfs5dr-686458 November
## # ... with 22,114 more rows
…
3.3.3 Filtering

A very common operation when dealing with data is to select a subset of rows that are of interest for our analysis. For example, lets assume we are only interested in releases that are related to awards. We can identify the stage of the contracting process to which a release is related through the tag column.

releases_tb[1,]$tag

## [[1]]
## [1] "tender"

Knowing this, it is easy to get the collection of releases that correspond to awards by using filter as shown below:

awards_tb = releases_tb %>% filter(tag == 'award')
awards_tb

## # A tibble: 10,651 x 28
##    ocid  id    date  tag   language initiationType parties buyer.name
##    <chr> <chr> <chr> <lis> <chr>    <chr>          <list>  <chr>     
##  1 ocds adju 2018 <chr es       tender         <data. Jefatura 
##  2 ocds adju 2018 <chr es       tender         <data. Servicio 
##  3 ocds adju 2018 <chr es       tender         <data. Direccin
##  4 ocds adju 2018 <chr es       tender         <data. Centro De
##  5 ocds adju 2018 <chr es       tender         <data. Direccin
##  6 ocds adju 2018 <chr es       tender         <data. Centro De
##  7 ocds adju 2018 <chr es       tender         <data. Direccin
##  8 ocds adju 2018 <chr es       tender         <data. Jefatura 
##  9 ocds adju 2018 <chr es       tender         <data. Hospital 
## 10 ocds adju 2018 <chr es       tender         <data. Centro de
## # ... with 10,641 more rows, and 20 more variables: buyer.id <chr>,
## #   tender.id <chr>, tender.title <chr>, tender.description <chr>,
## #   tender.status <chr>, tender.items <list>,
## #   tender.procurementMethod <chr>, tender.procurementMethodDetails <chr>,
## #   tender.submissionMethod <list>, tender.hasEnquiries <lgl>,
## #   tender.documents <list>, tender.procuringEntity.name <chr>,
## #   tender.procuringEntity.id <chr>, tender.tenderPeriod.startDate <chr>,
## #   tender.tenderPeriod.endDate <chr>, awards <list>,
## #   tender.amendments <list>, tender.submissionMethodDetails <chr>,
…
## [1] 43351     1

Having confirmed the presence of duplicate contracts, we need to come up with a smarter merging strategy: lets merge both tibbles together and group them by dncpContractCode (this should group duplicates together), sort the rows within each group by publishedDate in ascending order, and finally pick the last row from each group. This preprocessing step, coded in the snippet below, ensures that we only include the most current version of a contract in our analysis.

contracts_paraguay <- bind_rows(contracts_dncp, contracts_hacienda) %>%
  group_by(dncpContractCode) %>%
  arrange(publishedDate) %>%
  slice(n()) %>%
  ungroup

contracts_paraguay

## # A tibble: 147,196 x 24
##    awardID title dncpContractCode lots  documents dateSigned id    items
##    <chr>   <chr> <chr>            <lis> <list>    <chr>      <chr> <lis>
##  1 195388 Cont AC-11001-10-0155 <NUL <data.fr 2010-09-2 1953 <NUL
##  2 156467 Cont AC-11001-10-0290 <NUL <data.fr 2010-10-2 1564 <NUL
##  3 156467 Cont AC-11001-10-0292 <NUL <data.fr 2010-10-2 1564 <NUL
##  4 156467 Cont AC-11001-10-0293 <NUL <data.fr 2010-10-2 1564 <NUL
##  5 185054 Cont AC-11001-10-0319 <NUL <data.fr 2010-10-2 1850 <NUL
##  6 185054 Cont AC-11001-10-0361 <NUL <data.fr 2010-11-0 1850 <NUL
##  7 185054 Cont AC-11001-10-0362 <NUL <data.fr 2010-11-0 1850 <NUL
##  8 201352 Cont AC-11001-10-0363 <NUL <data.fr 2010-11-0 2013 <NUL
##  9 186382 Cont AC-11001-10-0408 <NUL <data.fr 2010-11-0 1863 <NUL
## 10 189787 Cont AC-11001-10-0421 <NUL <data.fr 2010-11-0 1897 <NUL
## # ... with 147,186 more rows, and 16 more variables: url <chr>,
## #   status <chr>, value.amount <dbl>, value.currency <chr>,
## #   suppliers.name <chr>, suppliers.identifier.scheme <chr>,
## #   suppliers.identifier.legalName <chr>, suppliers.identifier.id <chr>,
## #   suppliers.identifiers.key <chr>, period.endDate <chr>,
## #   period.startDate <chr>, buyer.name <chr>, publishedDate <dbl>,
## #   extendsContractID <chr>, dncpAmendmentType <chr>,
## #   implementation.transactions <list>
…
