Analizando datos de Open Contracting
…
##    name        age        student       
##  John:1   Min.   :20.0   Mode :logical  
##  Lucy:1   1st Qu.:22.5   FALSE:1        
##  Mike:1   Median :25.0   TRUE :2        
##           Mean   :25.0                  
##           3rd Qu.:27.5                  
##           Max.   :30.0

Leer datos que se encuentran en formato tabular tambin es muy simple, como se muestra en el siguiente ejemplo que lee un archivo CSV como un data frame. El archivo corresponde al dataset iris, un dataset de ejemplo comn en la literatura de ciencia de datos disponible en lnea.

iris <- as_tibble(read.table("iris.csv", header = TRUE, sep = ","))
iris

## # A tibble: 150 x 5
##    SepalLength SepalWidth PetalLength PetalWidth Name       
##          <dbl>      <dbl>       <dbl>      <dbl> <fct>      
##  1         5.1        3.5         1.4        0.2 Iris-setosa
##  2         4.9        3           1.4        0.2 Iris-setosa
##  3         4.7        3.2         1.3        0.2 Iris-setosa
##  4         4.6        3.1         1.5        0.2 Iris-setosa
##  5         5          3.6         1.4        0.2 Iris-setosa
##  6         5.4        3.9         1.7        0.4 Iris-setosa
##  7         4.6        3.4         1.4        0.3 Iris-setosa
##  8         5          3.4         1.5        0.2 Iris-setosa
##  9         4.4        2.9         1.4        0.2 Iris-setosa
## 10         4.9        3.1         1.5        0.1 Iris-setosa
## # ... with 140 more rows
…
  return(as_tibble(xmlToDataFrame(xmlElementsByTagName(xml_top, "item"),
                                  stringsAsFactors=FALSE)))
}

xml_data_bymonth = lapply(date_range, fetch_data)
index_tb = bind_rows(xml_data_bymonth)
index_tb

## # A tibble: 30,383 x 5
##    title             pubDate      link                  guid      category
##    <chr>             <chr>        <chr>                 <chr>     <chr>   
##  1 id_compra:694189 Thu, 20 Dec http://www.comprases ajuste_a awardUp
##  2 id_compra:697126 Thu, 20 Dec http://www.comprases llamado- tender  
##  3 id_compra:688727 Thu, 20 Dec http://www.comprases adjudica award   
##  4 id_compra:697049 Thu, 20 Dec http://www.comprases adjudica award   
##  5 id_compra:697111 Thu, 20 Dec http://www.comprases adjudica award   
##  6 id_compra:697084 Thu, 20 Dec http://www.comprases adjudica award   
##  7 id_compra:697101 Thu, 20 Dec http://www.comprases aclar_ll tenderU
##  8 id_compra:695915 Thu, 20 Dec http://www.comprases aclar_ll tenderU
##  9 id_compra:696488 Thu, 20 Dec http://www.comprases aclar_ll tenderU
## 10 id_compra:696437 Thu, 20 Dec http://www.comprases aclar_ll tenderU
## # ... with 30,373 more rows
…
El anterior fragmento de cdigo usa varias de las funciones que ya utilizamos como fromJSON, as_tibble y otras. Hay tres nuevas funciones que mereces una explicacin:

list.files retorna una lista de direcciones correspondientes a archivos almacenados en la direccin que recibe como primer parmetro, que matchean la expresin regular que recibe como segundo parmetro.

paste concatena todas las cadenas que recibe, colocando sep entre ellas.

parLapply es la versin paralela de lapply, la cual ejecuta la funcin que recibe como parmetro en los diferentes trabajadores del cluster. Esto puede hacerse debido a que la lectura y parseo de archivos JSON es una tarea vergonzosamente paralela.

dncp_records_tb <- bind_rows(records)
remove(records)
dncp_records_tb

## # A tibble: 138,398 x 39
##    releases ocid  compiledRelease compiledRelease compiledRelease
##    <list>   <chr> <list>           <chr>            <list>          
##  1 <data.f ocds <list [0]>       ocds-03ad3f-134 <list [0]>      
##  2 <data.f ocds <list [0]>       ocds-03ad3f-134 <list [0]>      
##  3 <data.f ocds <data.frame [1  ocds-03ad3f-134 <data.frame [1 
##  4 <data.f ocds <list [0]>       ocds-03ad3f-134 <list [0]>      
##  5 <data.f ocds <data.frame [1  ocds-03ad3f-134 <data.frame [1 
##  6 <data.f ocds <NULL>           <NA>             <NULL>          
##  7 <data.f ocds <NULL>           <NA>             <NULL>          
##  8 <data.f ocds <data.frame [1  ocds-03ad3f-136 <data.frame [3 
##  9 <data.f ocds <data.frame [1  ocds-03ad3f-136 <data.frame [1 
## 10 <data.f ocds <list [0]>       ocds-03ad3f-136 <list [0]>      
## # ... with 138,388 more rows, and 34 more variables:
## #   compiledRelease.date <chr>, compiledRelease.language <chr>,
## #   compiledRelease.initiationType <chr>, compiledRelease.id <chr>,
## #   compiledRelease.tag <list>, compiledRelease.planning.url <chr>,
## #   compiledRelease.planning.budget.description <chr>,
## #   compiledRelease.planning.budget.amount.amount <dbl>,
## #   compiledRelease.planning.budget.amount.currency <chr>,
## #   compiledRelease.buyer.name <chr>,
## #   compiledRelease.buyer.contactPoint.email <chr>,
…
mh_releases_tb <- bind_rows(releases)
remove(releases)
mh_releases_tb

## # A tibble: 25,839 x 27
##    recordPackageURI initiationType language contracts id    tag   parties
##    <chr>            <chr>          <chr>    <list>    <chr> <lis> <list> 
##  1 https://www.con tender         es       <data.fr 1567 <chr <data.
##  2 https://www.con tender         es       <data.fr 1848 <chr <data.
##  3 https://www.con tender         es       <data.fr 1881 <chr <data.
##  4 https://www.con tender         es       <data.fr 1881 <chr <data.
##  5 https://www.con tender         es       <data.fr 1888 <chr <data.
##  6 https://www.con tender         es       <data.fr 1890 <chr <data.
##  7 https://www.con tender         es       <data.fr 1891 <chr <data.
##  8 https://www.con tender         es       <data.fr 1898 <chr <data.
##  9 https://www.con tender         es       <data.fr 1911 <chr <data.
## 10 https://www.con tender         es       <data.fr 1911 <chr <data.
## # ... with 25,829 more rows, and 20 more variables: date <chr>,
## #   awards <list>, ocid <chr>, planning.documents <list>,
## #   planning.budget.project <chr>, planning.budget.budgetBreakdown <list>,
## #   planning.budget.description <chr>,
## #   planning.budget.amount.currency <chr>,
## #   planning.budget.amount.amount <dbl>, tender.id <chr>,
## #   tender.procurementMethodDetails <chr>, tender.title <chr>,
## #   tender.procuringEntity.id <chr>, tender.procuringEntity.name <chr>,
## #   tender.tenderPeriod.startDate <chr>,
…
Spread convierte cada valor en la columna dada por su parmetro key a una columna separada, completando los valores de la misma a partir de la columna dada por su parmetro value.

3.2.3 Separar

La ltima funcin de tidyr que visitaremos, separate, permite solucionar casos en los cuales valores mltiples estn almacenados en la misma celda. Por ejemplo, considera el resultado de parsear el feed RSS de Uruguay que descargamos en la seccin anterior.

index_tb

## # A tibble: 30,383 x 5
##    title             pubDate      link                  guid      category
##    <chr>             <chr>        <chr>                 <chr>     <chr>   
##  1 id_compra:694189 Thu, 20 Dec http://www.comprases ajuste_a awardUp
##  2 id_compra:697126 Thu, 20 Dec http://www.comprases llamado- tender  
##  3 id_compra:688727 Thu, 20 Dec http://www.comprases adjudica award   
##  4 id_compra:697049 Thu, 20 Dec http://www.comprases adjudica award   
##  5 id_compra:697111 Thu, 20 Dec http://www.comprases adjudica award   
##  6 id_compra:697084 Thu, 20 Dec http://www.comprases adjudica award   
##  7 id_compra:697101 Thu, 20 Dec http://www.comprases aclar_ll tenderU
##  8 id_compra:695915 Thu, 20 Dec http://www.comprases aclar_ll tenderU
##  9 id_compra:696488 Thu, 20 Dec http://www.comprases aclar_ll tenderU
## 10 id_compra:696437 Thu, 20 Dec http://www.comprases aclar_ll tenderU
## # ... with 30,373 more rows
…
Separate separa el valor de una columna usando sep como separador; los nombres de las nuevas columnas estn dadas por el parmetro into, el cual debe ser una coleccin de cadenas. Las ltimas dos lneas son un vistazo previo del paquete que cubriremos a continuacin: dplyr.

3.3 Funciones para el anlisis de datos

Una vez que limpiamos nuestros datos con tidyr, los siguientes pasos del anlisis de datos involucran la manipulacin de los datos de distintas maneras. Seleccionar filas y columnas de acuerdo a ciertas condiciones, aadir columnas compuestas, sumarizar datos, etc. pueden citarse como ejemplos de las operaciones que se realizan frecuentemente como parte del proceso analtico. El Tidyverse incluye dplyr como la herramienta a utilizar para estas tareas, a continuacin cubriremos algunas de sus funciones bsicas.

3.3.1 Mutar

La funcin mutate permite al usuario aadir una nueva columna a un tibble basado en los valores de una (o ms) columnas ya existentes. Usemos el dataset de entregas de Uruguay para demostrar un caso en la cual est funcin puede ser de utilidad:

releases_tb

## # A tibble: 30,383 x 28
##    ocid  id    date  tag   language initiationType parties awards
##    <chr> <chr> <chr> <lis> <chr>    <chr>          <list>  <list>
##  1 ocds ajus 2018 <chr es       tender         <data. <data
##  2 ocds llam 2018 <chr es       tender         <data. <NULL>
##  3 ocds adju 2018 <chr es       tender         <data. <data
##  4 ocds adju 2018 <chr es       tender         <data. <data
##  5 ocds adju 2018 <chr es       tender         <data. <data
##  6 ocds adju 2018 <chr es       tender         <data. <data
##  7 ocds acla 2018 <chr es       tender         <data. <NULL>
##  8 ocds acla 2018 <chr es       tender         <data. <NULL>
##  9 ocds acla 2018 <chr es       tender         <data. <NULL>
## 10 ocds acla 2018 <chr es       tender         <data. <NULL>
## # ... with 30,373 more rows, and 20 more variables: buyer.name <chr>,
## #   buyer.id <chr>, tender.id <chr>, tender.title <chr>,
## #   tender.description <chr>, tender.status <chr>, tender.items <list>,
## #   tender.procurementMethod <chr>, tender.procurementMethodDetails <chr>,
## #   tender.submissionMethod <list>, tender.submissionMethodDetails <chr>,
## #   tender.hasEnquiries <lgl>, tender.documents <list>,
## #   tender.procuringEntity.name <chr>, tender.procuringEntity.id <chr>,
## #   tender.tenderPeriod.startDate <chr>,
## #   tender.tenderPeriod.endDate <chr>, tender.amendments <list>,
## #   tender.enquiryPeriod.startDate <chr>,
## #   tender.enquiryPeriod.endDate <chr>

Supongamos que necesitamos una columna con el nombre del mes en el cual se public una entrega. Este valor no est directamente disponible en el dataset, pero la informacin necesaria est contenida en la columna date y puede ser extraida con la ayuda de mutate:

uruguay_releases_with_month = releases_tb %>% mutate(month = month.name[month(date)])
## month.name es un vector con el nombre de cada mes
uruguay_releases_with_month[c('ocid', 'month')] 

## # A tibble: 30,383 x 2
##    ocid               month   
##    <chr>              <chr>   
##  1 ocds-yfs5dr-694189 December
##  2 ocds-yfs5dr-697126 December
##  3 ocds-yfs5dr-688727 December
##  4 ocds-yfs5dr-697049 December
##  5 ocds-yfs5dr-697111 December
##  6 ocds-yfs5dr-697084 December
##  7 ocds-yfs5dr-697101 December
##  8 ocds-yfs5dr-695915 December
##  9 ocds-yfs5dr-696488 December
## 10 ocds-yfs5dr-696437 December
## # ... with 30,373 more rows

Mutate recibe un tibble como primer parmetro; recibe una expresin de asignacin de variable como segundo parmetro, la cual se evala fila por fila de modo a producir la nueva columna.

3.3.2 Seleccionar

En el fragmento de cdigo anterior seleccionamos ciertas columnas de nuestro tibble usando la notacin de ndices de un arreglo. dplyr provee una funcin para hacer lo mismo, select:

select(uruguay_releases_with_month, ocid, month)

## # A tibble: 30,383 x 2
##    ocid               month   
##    <chr>              <chr>   
##  1 ocds-yfs5dr-694189 December
##  2 ocds-yfs5dr-697126 December
##  3 ocds-yfs5dr-688727 December
##  4 ocds-yfs5dr-697049 December
##  5 ocds-yfs5dr-697111 December
##  6 ocds-yfs5dr-697084 December
##  7 ocds-yfs5dr-697101 December
##  8 ocds-yfs5dr-695915 December
##  9 ocds-yfs5dr-696488 December
## 10 ocds-yfs5dr-696437 December
## # ... with 30,373 more rows
…
3.3.3 Filtrar

Una operacin muy comn al lidar con datos tabulares es seleccionar un subconjunto de filas de inters para el anlisis. Por ejemplo, asumamos que solo estamos interesados en entregas relacionadas a adjudicaciones. La etapa del proceso de contratacin a la que corresponde una entrega puede determinarse a partir de la columna tag.

releases_tb[1,]$tag

## [[1]]
## [1] "awardUpdate"

Sabiendo esto, es fcil obtener la coleccin de entregas que corrsponden a adjudicaciones usando filter como se muestra a continuacin:

awards_tb = releases_tb %>% filter(tag == 'award')
awards_tb

## # A tibble: 14,784 x 28
##    ocid  id    date  tag   language initiationType parties awards
##    <chr> <chr> <chr> <lis> <chr>    <chr>          <list>  <list>
##  1 ocds adju 2018 <chr es       tender         <data. <data
##  2 ocds adju 2018 <chr es       tender         <data. <data
##  3 ocds adju 2018 <chr es       tender         <data. <data
##  4 ocds adju 2018 <chr es       tender         <data. <data
##  5 ocds adju 2018 <chr es       tender         <data. <data
##  6 ocds adju 2018 <chr es       tender         <data. <data
##  7 ocds adju 2018 <chr es       tender         <data. <data
##  8 ocds adju 2018 <chr es       tender         <data. <data
##  9 ocds adju 2018 <chr es       tender         <data. <data
## 10 ocds adju 2018 <chr es       tender         <data. <data
## # ... with 14,774 more rows, and 20 more variables: buyer.name <chr>,
## #   buyer.id <chr>, tender.id <chr>, tender.title <chr>,
## #   tender.description <chr>, tender.status <chr>, tender.items <list>,
## #   tender.procurementMethod <chr>, tender.procurementMethodDetails <chr>,
## #   tender.submissionMethod <list>, tender.submissionMethodDetails <chr>,
## #   tender.hasEnquiries <lgl>, tender.documents <list>,
## #   tender.procuringEntity.name <chr>, tender.procuringEntity.id <chr>,
## #   tender.tenderPeriod.startDate <chr>,
## #   tender.tenderPeriod.endDate <chr>, tender.amendments <list>,
…
## [1] 43351     1

Habiendo confirmado la presencia de contratos duplicados, necesitamos encontrar una estrategia ms inteligente para fusionar los datasets: podemos mezclar ambos tibbles y agruparlos de acuerdo al dncpContractCode (lo cual debera agrupar a duplicados juntos), ordenar las filas dentro de cada grupo por publishedDate de forma ascendente, y finalmente seleccionar la ltima fila de cada grupo. Este paso de preprocesamiento, implementado en el siguiente fragmento de cdigo, asegura que incluimos nicamente la versin ms actualizada de cada contrato en nuestro anlisis.

contracts_paraguay <- bind_rows(contracts_dncp, contracts_hacienda) %>%
  group_by(dncpContractCode) %>%
  arrange(publishedDate) %>%
  slice(n()) %>%
  ungroup

contracts_paraguay

## # A tibble: 147,196 x 24
##    awardID title dncpContractCode lots  documents dateSigned id    items
##    <chr>   <chr> <chr>            <lis> <list>    <chr>      <chr> <lis>
##  1 338222 Cont _NO_APLICA_      <NUL <data.fr <NA>       3382 <NUL
##  2 195388 Cont AC-11001-10-0155 <NUL <data.fr 2010-09-2 1953 <NUL
##  3 156467 Cont AC-11001-10-0290 <NUL <data.fr 2010-10-2 1564 <NUL
##  4 156467 Cont AC-11001-10-0292 <NUL <data.fr 2010-10-2 1564 <NUL
##  5 156467 Cont AC-11001-10-0293 <NUL <data.fr 2010-10-2 1564 <NUL
##  6 185054 Cont AC-11001-10-0319 <NUL <data.fr 2010-10-2 1850 <NUL
##  7 185054 Cont AC-11001-10-0361 <NUL <data.fr 2010-11-0 1850 <NUL
##  8 185054 Cont AC-11001-10-0362 <NUL <data.fr 2010-11-0 1850 <NUL
##  9 201352 Cont AC-11001-10-0363 <NUL <data.fr 2010-11-0 2013 <NUL
## 10 186382 Cont AC-11001-10-0408 <NUL <data.fr 2010-11-0 1863 <NUL
## # ... with 147,186 more rows, and 16 more variables: url <chr>,
## #   status <chr>, value.amount <dbl>, value.currency <chr>,
## #   suppliers.name <chr>, suppliers.identifier.scheme <chr>,
## #   suppliers.identifier.legalName <chr>, suppliers.identifier.id <chr>,
## #   suppliers.identifiers.key <chr>, period.endDate <chr>,
## #   period.startDate <chr>, buyer.name <chr>, publishedDate <dbl>,
## #   extendsContractID <chr>, dncpAmendmentType <chr>,
## #   implementation.transactions <list>
…
